2362
2267
2220
2332
2301
2155
2174
2202
2197
2174
11071
10640
10242
10426
10059
7420
7891
6489
7082
7981
28506
28275
28595
26946
18421
20753
17999
17289
17426
19286
55971
55889
49786
41277
50500
43938
37774
34419
42938
42455
93066
88888
67309
66148
65675
62767
61708
61201
62035
61386
138571
132939
111779
102391
99343
92255
115773
113653
110338
92520
189885
184443
163379
167032
167158
138267
156908
171027
166650
161866
256514
241091
222275
203940
209756
227193
231575
229503
218283
223768
330861
302362
268421
280218
279692
279330
297038
284871
282479
296757
423932
387333
386455
382930
371021
371532
373356
392575
378178
378429
